appnope==0.1.0
backcall==0.1.0
beautifulsoup4==4.7.1
bleach==3.1.0
boto3==1.9.111
botocore==1.12.111
bs4==0.0.1
certifi==2018.11.29
chardet==3.0.4
cymem==2.0.2
cytoolz==0.9.0.1
dateparser==0.7.1
decorator==4.3.2
dill==0.2.9
Django==1.9
django-appconf==1.0.2
django-compressor==2.2
django-cors-headers==2.4.0
docutils==0.14
duckling==1.8.0
en-core-web-lg==2.0.0
en-core-web-sm==2.0.0
entrypoints==0.3
gunicorn==19.9.0
idna==2.8
ipykernel==5.1.0
ipython==7.2.0
ipython-genutils==0.2.0
jedi==0.13.2
Jinja2==2.10
jmespath==0.9.4
JPype1==0.6.3
jsonschema==2.6.0
jupyter-client==5.2.4
jupyter-core==4.4.0
MarkupSafe==1.1.0
mistune==0.8.4
mkl-fft==1.0.10
mkl-random==1.0.2
msgpack==0.5.6
msgpack-numpy==0.4.3.2
murmurhash==1.0.1
nbconvert==5.3.1
nbformat==4.4.0
nltk==3.4
notebook==5.7.4
numpy==1.16.1
pandas==0.24.1
pandocfilters==1.4.2
parso==0.3.2
pexpect==4.6.0
pickleshare==0.7.5
plac==0.9.6
preshed==2.0.1
prometheus-client==0.5.0
prompt-toolkit==2.0.8
psycopg2==2.7.7
ptyprocess==0.6.0
Pygments==2.3.1
pymongo==3.7.2
pyspellchecker==0.3.0
python-dateutil==2.7.5
pytz==2018.9
pyzmq==17.1.2
pyzmq==17.1.2
rcssmin==1.0.6
regex==2018.1.10
requests==2.21.0
rjsmin==1.0.12
s3transfer==0.2.0
scikit-learn==0.20.3
scipy==1.2.1
Send2Trash==1.5.0
singledispatch==3.4.0.3
six==1.12.0
sklearn==0.0
soupsieve==1.8
spacy==2.0.18
terminado==0.8.1
testpath==0.4.2
textblob==0.15.3
thinc==6.12.1
toolz==0.9.0
tornado==5.1.1
tqdm==4.31.1
traitlets==4.3.2
tzlocal==1.5.1
ujson==1.35
urllib3==1.24.1
wcwidth==0.1.7
webencodings==0.5.1
whitenoise==4.1.2
wrapt==1.10.11
xgboost==0.82